<?xml version="1.0" encoding="UTF-8" standalone="no"?>
<svg
   id="svg13388"
   viewBox="0 0 500 500"
   version="1.1"
   inkscape:version="1.1.1 (1:1.1+202109281949+c3084ef5ed)"
   sodipodi:docname="icon.svg"
   width="500"
   height="500"
   inkscape:export-filename="/home/ekleinod/working/git/opentt/website/design/icon.png"
   inkscape:export-xdpi="96"
   inkscape:export-ydpi="96"
   xmlns:inkscape="http://www.inkscape.org/namespaces/inkscape"
   xmlns:sodipodi="http://sodipodi.sourceforge.net/DTD/sodipodi-0.dtd"
   xmlns="http://www.w3.org/2000/svg"
   xmlns:svg="http://www.w3.org/2000/svg"
   xmlns:rdf="http://www.w3.org/1999/02/22-rdf-syntax-ns#"
   xmlns:cc="http://creativecommons.org/ns#"
   xmlns:dc="http://purl.org/dc/elements/1.1/">
  <sodipodi:namedview
     pagecolor="#ffffff"
     bordercolor="#666666"
     borderopacity="1"
     objecttolerance="10"
     gridtolerance="10"
     guidetolerance="10"
     inkscape:pageopacity="0"
     inkscape:pageshadow="2"
     inkscape:window-width="1920"
     inkscape:window-height="975"
     id="namedview3861"
     showgrid="false"
     inkscape:zoom="1.53"
     inkscape:cx="228.10458"
     inkscape:cy="250"
     inkscape:window-x="0"
     inkscape:window-y="40"
     inkscape:window-maximized="1"
     inkscape:current-layer="svg13388"
     inkscape:pagecheckerboard="0"
     height="500px" />
  <defs
     id="defs13390">
    <filter
       id="filter3886"
       height="2.4791999"
       width="1.0579"
       y="-0.73958999"
       x="-0.028935"
       color-interpolation-filters="sRGB">
      <feGaussianBlur
         id="feGaussianBlur3888"
         stdDeviation="6.4394811" />
    </filter>
    <linearGradient
       id="linearGradient3916"
       y2="543.04999"
       gradientUnits="userSpaceOnUse"
       x2="519.07001"
       y1="543.04999"
       x1="-15.045">
      <stop
         id="stop3862"
         stop-opacity="0"
         offset="0" />
      <stop
         id="stop3868"
         offset=".42549" />
      <stop
         id="stop3864"
         stop-opacity="0"
         offset="1" />
    </linearGradient>
    <radialGradient
       id="radialGradient3918"
       gradientUnits="userSpaceOnUse"
       cy="491.64001"
       cx="106.15"
       gradientTransform="matrix(1,0,0,0.16092,0,412.53)"
       r="72.719002">
      <stop
         id="stop3844"
         offset="0" />
      <stop
         id="stop3846"
         stop-opacity="0"
         offset="1" />
    </radialGradient>
    <linearGradient
       id="linearGradient3920"
       y2="399.89001"
       gradientUnits="userSpaceOnUse"
       x2="2312.1001"
       gradientTransform="matrix(0.49835,-0.065884,0.065884,0.49835,-840.33,857.76)"
       y1="122.39"
       x1="2335.1001">
      <stop
         id="stop14382"
         stop-color="#deaa87"
         offset="0" />
      <stop
         id="stop14384"
         stop-color="#c87137"
         offset="1" />
    </linearGradient>
    <radialGradient
       id="radialGradient3922"
       gradientUnits="userSpaceOnUse"
       cy="310.12"
       cx="46.006001"
       gradientTransform="matrix(0.49835,-0.065884,0.063882,0.4832,39.937,636.74)"
       r="345.23999">
      <stop
         id="stop14063"
         stop-color="#ff2a2a"
         offset="0" />
      <stop
         id="stop14061"
         stop-color="#be0d00"
         offset="1" />
    </radialGradient>
    <linearGradient
       id="linearGradient3924"
       y2="293.37"
       gradientUnits="userSpaceOnUse"
       x2="2308.2"
       gradientTransform="matrix(0.49835,-0.065884,0.065884,0.49835,-839.63,859.19)"
       y1="315.42001"
       x1="2345.3999">
      <stop
         id="stop14353"
         stop-color="#d89a71"
         offset="0" />
      <stop
         id="stop14355"
         stop-color="#e9c6af"
         offset="1" />
    </linearGradient>
    <linearGradient
       id="linearGradient3926"
       y2="330.04001"
       gradientUnits="userSpaceOnUse"
       x2="2505.3999"
       gradientTransform="matrix(0.49835,-0.065884,0.065884,0.49835,-840.33,857.76)"
       y1="452.20001"
       x1="2427.5">
      <stop
         id="stop14341"
         stop-color="#d38d5f"
         offset="0" />
      <stop
         id="stop14347"
         stop-color="#f4e3d7"
         offset=".5" />
      <stop
         id="stop14343"
         stop-color="#d38d5f"
         offset="1" />
    </linearGradient>
    <radialGradient
       id="radialGradient3928"
       gradientUnits="userSpaceOnUse"
       cy="-242.24001"
       cx="596.79999"
       r="63.525002">
      <stop
         id="stop3029"
         stop-color="#f9f9f9"
         offset="0" />
      <stop
         id="stop3027"
         stop-color="#ccc"
         offset="1" />
    </radialGradient>
    <linearGradient
       id="linearGradient3930"
       y2="382.63"
       gradientUnits="userSpaceOnUse"
       x2="263.31"
       y1="477.07999"
       x1="330.82001">
      <stop
         id="stop3822"
         stop-color="#b3b3b3"
         offset="0" />
      <stop
         id="stop3824"
         stop-color="#b3b3b3"
         stop-opacity="0"
         offset="1" />
    </linearGradient>
    <linearGradient
       id="linearGradient3932"
       y2="915.34998"
       gradientUnits="userSpaceOnUse"
       x2="246.59"
       y1="850.15002"
       x1="210.88">
      <stop
         id="stop3834"
         stop-color="#fff"
         offset="0" />
      <stop
         id="stop3836"
         stop-color="#fff"
         stop-opacity="0"
         offset="1" />
    </linearGradient>
  </defs>
  <metadata
     id="metadata3859">
    <rdf:RDF>
      <cc:Work>
        <dc:format>image/svg+xml</dc:format>
        <dc:type
           rdf:resource="http://purl.org/dc/dcmitype/StillImage" />
        <cc:license
           rdf:resource="http://creativecommons.org/publicdomain/zero/1.0/" />
        <dc:publisher>
          <cc:Agent
             rdf:about="http://openclipart.org/">
            <dc:title>Openclipart</dc:title>
          </cc:Agent>
        </dc:publisher>
        <dc:title>Table Tennis</dc:title>
        <dc:date>2011-08-01T00:53:35</dc:date>
        <dc:description>ball, clip art, clipart, game, game, ping pong, playing, recreation, sport, sports, </dc:description>
        <dc:source>http://openclipart.org/detail/152959/table-tennis-by-gnokii</dc:source>
        <dc:creator>
          <cc:Agent>
            <dc:title>gnokii</dc:title>
          </cc:Agent>
        </dc:creator>
        <dc:subject>
          <rdf:Bag>
            <rdf:li>ball</rdf:li>
            <rdf:li>clip art</rdf:li>
            <rdf:li>clipart</rdf:li>
            <rdf:li>game</rdf:li>
            <rdf:li>ping pong</rdf:li>
            <rdf:li>playing</rdf:li>
            <rdf:li>recreation</rdf:li>
            <rdf:li>sport</rdf:li>
            <rdf:li>sports</rdf:li>
          </rdf:Bag>
        </dc:subject>
      </cc:Work>
      <cc:License
         rdf:about="http://creativecommons.org/publicdomain/zero/1.0/">
        <cc:permits
           rdf:resource="http://creativecommons.org/ns#Reproduction" />
        <cc:permits
           rdf:resource="http://creativecommons.org/ns#Distribution" />
        <cc:permits
           rdf:resource="http://creativecommons.org/ns#DerivativeWorks" />
      </cc:License>
    </rdf:RDF>
  </metadata>
  <path
     id="path14324"
     style="fill:#0088aa;stroke-width:1.02698"
     d="M 169.07617 53.478516 C 142.90025 53.945197 117.08259 62.215765 95.023438 76.324219 C 95.668662 77.129797 96.364531 78.015294 96.769531 78.480469 C 98.178844 80.10034 99.306014 87.512428 98.867188 89.212891 C 98.428361 90.917557 91.174584 95.744238 89.980469 96.111328 C 88.782139 96.474202 84.860181 100.32592 82.318359 106.72266 C 79.776538 113.11941 81.064599 124.11118 81.751953 128.08594 C 82.439307 132.0607 90.496223 156.6683 91.099609 158.79492 C 91.702995 160.92154 94.985666 166.94404 97.441406 168.85547 C 99.897145 170.7669 121.88462 171.9949 137.38281 184.66602 C 152.88099 197.34137 158.70472 211.75056 161.26172 214.84766 C 163.81874 217.949 177.32066 225.95396 179.78906 227.46875 C 182.25745 228.98355 191.57035 231.07651 193.25391 232.30859 C 194.58729 233.2833 195.07117 235.46301 195.58594 237.06641 L 198.83203 237.10547 C 200.17383 234.45142 201.11011 232.00842 202.25781 231.21094 C 204.27473 229.81429 205.3418 229.19336 205.3418 229.19336 C 205.3418 229.19336 211.01206 223.92415 213.92773 223.47266 C 214.52689 223.37984 215.15973 223.33741 215.79688 223.31641 C 217.40871 222.9451 218.83063 223.26512 221.48047 222.08789 C 224.28221 220.84314 225.00374 218.62481 226.40039 215.75977 C 227.79282 212.89473 231.17362 209.89909 231.88672 209.78516 C 232.26648 209.72609 232.44678 209.92829 232.42578 210.3418 L 232.05469 217.51367 C 234.94082 215.15498 236.67511 213.70851 237 213.66211 C 237.20251 213.63678 237.29083 213.83081 237.24023 214.08398 L 235.52344 222.49805 C 238.38847 223.24912 247.34715 227.41259 247.95898 228.58984 C 248.58767 229.79239 250.31367 234.59512 251.61328 235.28711 C 252.91287 235.98332 257.73547 238.22004 258.11523 238.88672 C 258.49079 239.55761 258.96248 241.67509 258.15234 242.44727 C 257.34219 243.21944 257.803 245.4644 257.9043 246.6543 C 258.00135 247.8442 256.58336 251.76414 255.25 252.25781 C 253.92087 252.7515 250.05481 254.46505 248.86914 254.43555 C 248.84377 254.4313 248.75283 254.49462 248.74023 254.54102 C 248.30984 256.89549 247.74684 260.31758 247.89453 261.16992 C 248.12238 262.49906 252.04669 264.04277 253.10156 264.07227 C 254.15644 264.1018 258.47429 265.13617 261.60938 266.40625 C 264.74024 267.67632 279.62951 273.33845 280.2793 273.75195 C 280.92488 274.16546 292.89104 280.5494 294.5957 280.85742 C 296.3046 281.16544 304.01942 283.74814 306.88867 285.00977 C 309.7426 286.26882 316.40728 285.92761 318.02734 286.35156 L 355.88086 239.5957 C 355.88086 239.5957 344.17515 279.87344 348.41992 299.56641 C 348.86515 301.63155 349.74529 303.9234 350.86328 306.29102 C 346.77865 307.04918 341.27921 308.33447 338.125 310.3418 C 329.03085 316.12897 321.49072 325.13503 317.28125 335.05859 C 316.56857 336.73903 316.17347 339.15085 315.94531 341.57227 C 314.68177 341.23795 313.44752 340.97411 312.29688 340.88672 C 293.05525 339.42442 257.88086 360.64062 257.88086 360.64062 L 306.37305 300.74414 L 306.1875 300.75586 L 304.03906 300.75586 L 300.01953 300.65039 C 300.01953 300.65039 296.87927 299.51964 294.76953 299.46484 C 292.65978 299.40576 265.54219 297.63829 260.68555 296.72266 C 255.82892 295.80281 251.11156 294.6211 250.1875 294.5957 C 249.26765 294.57461 231.933 291.6214 226.81055 290.82812 C 225.84849 290.67622 224.68349 290.56584 223.42188 290.49414 C 223.39657 290.49414 223.3671 290.49814 223.3418 290.49414 C 217.85648 290.67136 211.67463 290.33043 207.92773 291.00977 C 206.49732 291.57096 205.28764 291.61724 201.33398 291.30078 C 198.6757 291.08991 193.74309 291.02546 190.36328 291.15625 C 184.62899 291.37989 184.08913 291.33047 182.38867 290.45703 C 180.78949 289.63846 180.42619 289.59616 179.44727 290.08984 C 178.56962 290.52861 178.09743 290.5235 177.23242 290.10156 C 176.62482 289.80198 175.51872 289.54063 174.79297 289.51953 C 174.06299 289.50266 173.07088 289.26647 172.58984 288.99219 C 172.10461 288.71793 169.85992 288.17037 167.58984 287.76953 C 165.32397 287.36446 163.01236 286.71828 162.45117 286.33008 C 161.51866 285.68451 161.29966 285.68442 160.02539 286.30469 C 158.74266 286.92499 158.55239 286.92098 157.87305 286.27539 C 157.46376 285.88719 156.56864 285.54454 155.88086 285.52344 C 155.19729 285.50657 154.03302 285.30496 153.29883 285.06445 C 152.56464 284.82393 150.69012 284.35584 149.12891 284.03516 C 147.57191 283.7187 145.91009 283.16498 145.4375 282.81055 C 144.96493 282.4561 144.14236 281.8361 143.61914 281.43945 C 142.72462 280.75168 142.60994 280.77293 141.57617 281.83203 L 140.48047 282.95508 L 139.25586 281.71289 C 138.57652 281.02511 137.32304 279.81022 136.4707 279.02539 C 135.62259 278.23635 134.85061 277.35489 134.75781 277.04688 C 134.63124 276.62493 134.316 276.65359 133.50586 277.18945 C 132.91513 277.58186 132.16241 277.89862 131.81641 277.89062 C 130.80373 277.86532 127.90956 274.24911 127.94336 273.05078 C 127.96446 272.19416 127.78668 272.01708 127.08203 272.18164 C 126.59678 272.29557 126.10315 272.21973 125.97656 271.99609 C 125.84576 271.77668 124.93893 271.57423 123.97266 271.54883 C 123.0064 271.52352 121.85156 271.29059 121.4043 271.0332 C 120.95281 270.7758 119.42845 270.41839 117.99805 270.22852 L 115.4043 269.88672 L 113.97656 271.75977 C 113.18751 272.78931 112.63577 273.93337 112.75391 274.30469 C 114.64002 280.33433 114.86292 280.79375 116.97266 282.9668 C 117.98534 284.01322 118.85941 284.92096 119.64844 285.72266 C 121.07885 286.4864 122.01953 287.94922 122.01953 287.94922 L 122.00781 288.08594 C 125.07115 291.03115 125.96897 291.31649 127.83398 291.36719 C 128.28547 291.37984 128.85465 291.53192 129.4707 291.75977 C 130.26395 291.77667 130.9102 291.77654 131.14648 291.83984 C 131.80472 292.02127 132.67383 293.17383 132.67383 293.17383 C 132.67383 293.17383 134.14598 294.33068 134.75781 294.875 C 134.99828 295.0902 134.98215 295.81049 134.90625 296.57422 C 134.98642 297.11854 134.91379 297.65842 134.70703 298.18164 C 134.68593 298.33776 134.67002 298.47361 134.66602 298.56641 C 134.66179 298.77738 134.34875 299.08948 133.93945 299.41016 C 133.82974 299.54096 133.71674 299.67583 133.58594 299.80664 C 133.15977 300.22438 132.74474 300.49013 132.05273 300.67578 C 132.04423 300.67978 132.03534 300.67178 132.02734 300.67578 C 131.96407 300.71368 131.94377 300.72206 131.88477 300.75586 L 117.57617 300.75586 L 115.65234 299.01367 C 114.94347 298.37653 113.58535 297.34307 112.04102 296.2207 C 111.62751 295.97596 111.22264 295.72215 110.88086 295.43945 C 110.83449 295.40147 110.78312 295.3422 110.73242 295.2832 C 110.73242 295.2786 110.7247 295.27548 110.7207 295.27148 C 110.31142 294.98033 109.92328 294.71044 109.50977 294.42773 C 108.44646 294.11971 107.15822 293.11931 106.1582 292.16992 C 104.36492 290.96315 102.61788 289.74836 101.39844 288.84961 C 99.892091 288.01837 98.465552 287.32058 98.035156 287.18555 C 97.208142 286.92817 96.950908 285.72165 96.638672 284.70898 C 95.967776 284.0634 95.306754 283.40988 94.673828 282.75586 C 94.19702 282.46049 93.782597 282.18966 93.685547 281.92383 C 93.436594 281.25715 90.195747 279.33358 89.558594 278.52344 C 89.001691 277.82301 89.347692 276.4182 89.453125 276.04688 C 89.326547 275.79371 89.171754 275.48092 89.015625 275.18555 C 87.998738 273.67497 85.231805 269.52414 84.929688 268.64648 C 84.561748 267.58318 85.141792 265.48159 85.720703 263.51953 C 85.756125 263.39717 85.797132 263.2116 85.826172 262.99219 C 85.826597 262.98759 85.826172 262.98252 85.826172 262.97852 C 85.913942 260.11771 85.579359 258.13173 84.652344 254.96289 C 83.92153 252.46073 83.21522 248.7262 83.03125 246.36328 C 82.450639 238.92432 82.1858 237.35023 81.277344 236 C 80.786192 235.27002 80.185824 233.85713 79.945312 232.86133 C 79.704802 231.86553 79.000334 230.502 78.375 229.84375 C 77.507891 228.92813 77.355003 228.53601 77.755859 228.15625 C 78.644904 227.30814 78.384264 225.50966 77.070312 223.45898 C 76.380007 222.37879 75.82935 221.03743 75.84375 220.48047 C 75.85852 219.92349 75.502529 218.47265 75.052734 217.23633 C 74.60294 216.00002 74.246609 214.5058 74.261719 213.92773 C 74.280291 213.22307 73.864631 212.60229 73.009766 212.06641 C 71.26458 210.97356 71.146154 210.36669 72.271484 208.29492 C 73.233529 206.52695 73.238472 206.51778 72.388672 205.80469 C 70.896241 204.54728 70.635481 203.39997 70.925781 199.11719 C 71.471787 191.07063 72.811645 185.55588 75.34375 180.93555 C 75.793969 180.11275 76.037761 179.00356 75.923828 178.32422 C 75.501873 175.80519 74.826676 173.18392 74.472656 172.73242 C 73.95534 172.07418 72.856684 167.05782 72.535156 163.88477 C 72.387479 162.42905 72.047339 160.81259 71.783203 160.28516 C 71.51948 159.76194 71.037635 157.88063 70.714844 156.12109 C 70.392041 154.35735 69.548136 151.61059 68.841797 150.01562 C 66.741753 145.26871 66.502124 144.54647 66.521484 142.8418 C 66.532039 141.94305 66.079716 140.21295 65.505859 139.00195 C 64.166181 136.17911 63.532634 133.1405 63.6875 130.30078 C 63.75501 129.06025 63.617846 127.49122 63.382812 126.82031 C 63.060447 125.90046 63.112468 125.26792 63.607422 124.26367 C 64.052576 123.35648 64.396037 120.58921 64.675781 115.67773 C 65.025149 109.54682 65.247618 108.11585 66.074219 106.42383 C 66.611358 105.31832 67.060942 103.93839 67.076172 103.34766 C 67.093056 102.69786 67.530172 102.02289 68.197266 101.60938 C 69.167753 101.01022 69.313756 100.56276 69.501953 97.744141 C 69.523182 97.425898 69.540155 97.266972 69.558594 97.009766 C 59.743147 107.05588 51.396632 118.53172 45.136719 131.22656 C 22.067369 172.37114 17.513277 220.99796 38.318359 262.99609 C 57.397217 303.66366 91.191514 335.54979 127.6582 360.78906 C 159.16292 381.98 206.69849 398.40858 242.55078 380.08008 C 248.99999 376.73734 254.03587 371.78208 258.58984 366.2793 C 273.90498 358.81724 294.76015 350.36188 308.93945 351.43945 C 312.37687 351.70065 316.28808 352.93478 320.30664 354.66602 L 429.94336 446.18164 C 452.81238 450.98853 476.83055 406.29058 474.89062 394.5 L 359.0918 307.33203 C 357.52329 304.08381 356.19244 300.90821 355.58398 298.08594 C 352.18546 282.31898 356.70536 256.36626 360.63086 238.89453 C 362.02681 237.15788 363.42446 235.42232 364.82031 233.68555 C 372.99608 195.26804 350.67182 158.59203 326.01172 131.0625 C 295.71055 98.52196 257.04963 72.922309 214.40234 59.882812 C 212.48746 59.335252 210.5624 58.817016 208.62695 58.332031 L 208.625 58.332031 C 202.81861 56.877218 196.93176 55.719459 191.02344 54.945312 L 191.01953 54.945312 C 183.72953 53.823192 176.39023 53.348116 169.07617 53.478516 z M 71.96875 94.599609 C 71.94269 94.625021 71.914713 94.648396 71.888672 94.673828 C 71.917843 94.65527 71.942617 94.623198 71.96875 94.599609 z " />
</svg>
